\relax 
\providecommand\babel@aux[2]{}
\@nameuse{bbl@beforestart}
\catcode `:\active 
\catcode `;\active 
\catcode `!\active 
\catcode `?\active 
\providecommand\hyper@newdestlabel[2]{}
\providecommand\HyperFirstAtBeginDocument{\AtBeginDocument}
\HyperFirstAtBeginDocument{\ifx\hyper@anchor\@undefined
\global\let\oldnewlabel\newlabel
\gdef\newlabel#1#2{\newlabelxx{#1}#2}
\gdef\newlabelxx#1#2#3#4#5#6{\oldnewlabel{#1}{{#2}{#3}}}
\AtEndDocument{\ifx\hyper@anchor\@undefined
\let\newlabel\oldnewlabel
\fi}
\fi}
\global\let\hyper@last\relax 
\gdef\HyperFirstAtBeginDocument#1{#1}
\providecommand\HyField@AuxAddToFields[1]{}
\providecommand\HyField@AuxAddToCoFields[2]{}
\providecommand \oddpage@label [2]{}
\@writefile{toc}{\@ifundefined {etoctocstyle}{\let \etoc@startlocaltoc \@gobble \let \etoc@settocdepth \@gobble \let \etoc@depthtag \@gobble \let \etoc@setlocaltop \@gobble }{}}
\babel@aux{french}{}
\@writefile{toc}{\contentsline {chapter}{\numberline {1}Index des structures de données}{1}{chapter.1}\protected@file@percent }
\@writefile{lof}{\addvspace {10\p@ }}
\@writefile{lot}{\addvspace {10\p@ }}
\@writefile{toc}{\contentsline {section}{\numberline {1.1}Structures de données}{1}{section.1.1}\protected@file@percent }
\@writefile{toc}{\contentsline {chapter}{\numberline {2}Index des fichiers}{3}{chapter.2}\protected@file@percent }
\@writefile{lof}{\addvspace {10\p@ }}
\@writefile{lot}{\addvspace {10\p@ }}
\@writefile{toc}{\contentsline {section}{\numberline {2.1}Liste des fichiers}{3}{section.2.1}\protected@file@percent }
\@writefile{toc}{\contentsline {chapter}{\numberline {3}Documentation des structures de données}{5}{chapter.3}\protected@file@percent }
\@writefile{lof}{\addvspace {10\p@ }}
\@writefile{lot}{\addvspace {10\p@ }}
\@writefile{toc}{\contentsline {section}{\numberline {3.1}Référence de la structure \discretionary {\mbox  {\scriptsize  $\hookleftarrow  $}}{}{}\_\discretionary {\mbox  {\scriptsize  $\hookleftarrow  $}}{}{}\discretionary {\mbox  {\scriptsize  $\hookleftarrow  $}}{}{}CONF\discretionary {\mbox  {\scriptsize  $\hookleftarrow  $}}{}{}\_\discretionary {\mbox  {\scriptsize  $\hookleftarrow  $}}{}{}}{5}{section.3.1}\protected@file@percent }
\newlabel{struct__CONF__}{{3.1}{5}{Référence de la structure \+\_\+\+CONF\+\_\+}{section.3.1}{}}
\@writefile{toc}{\contentsline {subsection}{\numberline {3.1.1}Description détaillée}{5}{subsection.3.1.1}\protected@file@percent }
\@writefile{toc}{\contentsline {subsection}{\numberline {3.1.2}Documentation des champs}{6}{subsection.3.1.2}\protected@file@percent }
\newlabel{struct__CONF___af13aeb15b49fdd76ed2c4de09f5aff77}{{3.1.2}{6}{Documentation des champs}{subsection.3.1.2}{}}
\@writefile{toc}{\contentsline {subsubsection}{\numberline {3.1.2.1}nb\_sections}{6}{subsubsection.3.1.2.1}\protected@file@percent }
\newlabel{struct__CONF___a342b4f7429ff293e714a1218fe79e296}{{3.1.2.1}{6}{\texorpdfstring {nb\_sections}{nb\_sections}}{subsubsection.3.1.2.1}{}}
\@writefile{toc}{\contentsline {subsubsection}{\numberline {3.1.2.2}sections}{6}{subsubsection.3.1.2.2}\protected@file@percent }
\newlabel{struct__CONF___a2c9d750d3fc30358b3155168a18ed2b3}{{3.1.2.2}{6}{\texorpdfstring {sections}{sections}}{subsubsection.3.1.2.2}{}}
\@writefile{toc}{\contentsline {subsubsection}{\numberline {3.1.2.3}type}{6}{subsubsection.3.1.2.3}\protected@file@percent }
\@writefile{toc}{\contentsline {section}{\numberline {3.2}Référence de la structure \discretionary {\mbox  {\scriptsize  $\hookleftarrow  $}}{}{}\_\discretionary {\mbox  {\scriptsize  $\hookleftarrow  $}}{}{}elem\discretionary {\mbox  {\scriptsize  $\hookleftarrow  $}}{}{}\_\discretionary {\mbox  {\scriptsize  $\hookleftarrow  $}}{}{}}{6}{section.3.2}\protected@file@percent }
\newlabel{struct__elem__}{{3.2}{6}{Référence de la structure \+\_\+elem\+\_\+}{section.3.2}{}}
\gdef \LT@i {\LT@entry 
    {3}{34.63348pt}\LT@entry 
    {1}{38.45992pt}}
\@writefile{toc}{\contentsline {subsection}{\numberline {3.2.1}Documentation des énumérations membres}{7}{subsection.3.2.1}\protected@file@percent }
\newlabel{struct__elem___a771d1f766a7feca38352e00bcb16d20e}{{3.2.1}{7}{Documentation des énumérations membres}{subsection.3.2.1}{}}
\@writefile{toc}{\contentsline {subsubsection}{\numberline {3.2.1.1}anonymous enum}{7}{subsubsection.3.2.1.1}\protected@file@percent }
\newlabel{struct__elem___a771d1f766a7feca38352e00bcb16d20ea08cfbc279fe8e917a5261b2ae6cad224}{{3.1}{7}{\texorpdfstring {anonymous enum}{anonymous enum}}{table.3.1}{}}
\newlabel{struct__elem___a771d1f766a7feca38352e00bcb16d20eaccdca2ea30cb08564b761d98f012d934}{{3.1}{7}{\texorpdfstring {anonymous enum}{anonymous enum}}{table.3.1}{}}
\@writefile{toc}{\contentsline {subsection}{\numberline {3.2.2}Documentation des champs}{7}{subsection.3.2.2}\protected@file@percent }
\newlabel{struct__elem___a83e429d2c698ac3f2a9e124d0a4376de}{{3.2.2}{7}{Documentation des champs}{subsection.3.2.2}{}}
\@writefile{toc}{\contentsline {subsubsection}{\numberline {3.2.2.1}name}{7}{subsubsection.3.2.2.1}\protected@file@percent }
\newlabel{struct__elem___a46e301d8eb9d1e8e55ee01e6ed7cf2cd}{{3.2.2.1}{7}{\texorpdfstring {name}{name}}{subsubsection.3.2.2.1}{}}
\@writefile{toc}{\contentsline {subsubsection}{\numberline {3.2.2.2}oid}{7}{subsubsection.3.2.2.2}\protected@file@percent }
\newlabel{struct__elem___aa695b394b13aed8774d97a0e77d98825}{{3.2.2.2}{7}{\texorpdfstring {oid}{oid}}{subsubsection.3.2.2.2}{}}
\@writefile{toc}{\contentsline {subsubsection}{\numberline {3.2.2.3}}{7}{subsubsection.3.2.2.3}\protected@file@percent }
\@writefile{toc}{\contentsline {section}{\numberline {3.3}Référence de la structure \discretionary {\mbox  {\scriptsize  $\hookleftarrow  $}}{}{}\_\discretionary {\mbox  {\scriptsize  $\hookleftarrow  $}}{}{}\discretionary {\mbox  {\scriptsize  $\hookleftarrow  $}}{}{}SECTION\discretionary {\mbox  {\scriptsize  $\hookleftarrow  $}}{}{}\_\discretionary {\mbox  {\scriptsize  $\hookleftarrow  $}}{}{}}{8}{section.3.3}\protected@file@percent }
\newlabel{struct__SECTION__}{{3.3}{8}{Référence de la structure \+\_\+\+SECTION\+\_\+}{section.3.3}{}}
\@writefile{toc}{\contentsline {subsection}{\numberline {3.3.1}Description détaillée}{8}{subsection.3.3.1}\protected@file@percent }
\@writefile{toc}{\contentsline {subsection}{\numberline {3.3.2}Documentation des champs}{8}{subsection.3.3.2}\protected@file@percent }
\newlabel{struct__SECTION___a576502345fd68ecabdd29e4347969520}{{3.3.2}{8}{Documentation des champs}{subsection.3.3.2}{}}
\@writefile{toc}{\contentsline {subsubsection}{\numberline {3.3.2.1}nb\_params}{8}{subsubsection.3.3.2.1}\protected@file@percent }
\newlabel{struct__SECTION___aadaa618ec9e2c9659eb511c2cd2e668b}{{3.3.2.1}{8}{\texorpdfstring {nb\_params}{nb\_params}}{subsubsection.3.3.2.1}{}}
\@writefile{toc}{\contentsline {subsubsection}{\numberline {3.3.2.2}nom}{8}{subsubsection.3.3.2.2}\protected@file@percent }
\newlabel{struct__SECTION___ace7c36b6ffe059e83f49a142f6a03585}{{3.3.2.2}{8}{\texorpdfstring {nom}{nom}}{subsubsection.3.3.2.2}{}}
\@writefile{toc}{\contentsline {subsubsection}{\numberline {3.3.2.3}params}{9}{subsubsection.3.3.2.3}\protected@file@percent }
\@writefile{toc}{\contentsline {section}{\numberline {3.4}Référence de la structure \discretionary {\mbox  {\scriptsize  $\hookleftarrow  $}}{}{}\_\discretionary {\mbox  {\scriptsize  $\hookleftarrow  $}}{}{}snmp2influxdb\discretionary {\mbox  {\scriptsize  $\hookleftarrow  $}}{}{}\_\discretionary {\mbox  {\scriptsize  $\hookleftarrow  $}}{}{}config\discretionary {\mbox  {\scriptsize  $\hookleftarrow  $}}{}{}\_\discretionary {\mbox  {\scriptsize  $\hookleftarrow  $}}{}{}}{9}{section.3.4}\protected@file@percent }
\newlabel{struct__snmp2influxdb__config__}{{3.4}{9}{Référence de la structure \+\_\+snmp2influxdb\+\_\+config\+\_\+}{section.3.4}{}}
\@writefile{toc}{\contentsline {subsection}{\numberline {3.4.1}Documentation des champs}{10}{subsection.3.4.1}\protected@file@percent }
\newlabel{struct__snmp2influxdb__config___a3e65509f6a7b31df9a348f6870ba759f}{{3.4.1}{10}{Documentation des champs}{subsection.3.4.1}{}}
\@writefile{toc}{\contentsline {subsubsection}{\numberline {3.4.1.1}AuthPass}{10}{subsubsection.3.4.1.1}\protected@file@percent }
\newlabel{struct__snmp2influxdb__config___acfb60ef95a94672724ad37978c9d4485}{{3.4.1.1}{10}{\texorpdfstring {AuthPass}{AuthPass}}{subsubsection.3.4.1.1}{}}
\@writefile{toc}{\contentsline {subsubsection}{\numberline {3.4.1.2}AuthProto}{10}{subsubsection.3.4.1.2}\protected@file@percent }
\newlabel{struct__snmp2influxdb__config___a44e430ccb8dfc5166999f451d80bf199}{{3.4.1.2}{10}{\texorpdfstring {AuthProto}{AuthProto}}{subsubsection.3.4.1.2}{}}
\@writefile{toc}{\contentsline {subsubsection}{\numberline {3.4.1.3}community}{10}{subsubsection.3.4.1.3}\protected@file@percent }
\newlabel{struct__snmp2influxdb__config___a4331ff2b4993c35bd7acbf3162bbe12e}{{3.4.1.3}{10}{\texorpdfstring {community}{community}}{subsubsection.3.4.1.3}{}}
\@writefile{toc}{\contentsline {subsubsection}{\numberline {3.4.1.4}CryptPass}{10}{subsubsection.3.4.1.4}\protected@file@percent }
\newlabel{struct__snmp2influxdb__config___ae58442de0f64ffac290f1a71a8675933}{{3.4.1.4}{10}{\texorpdfstring {CryptPass}{CryptPass}}{subsubsection.3.4.1.4}{}}
\@writefile{toc}{\contentsline {subsubsection}{\numberline {3.4.1.5}CryptProto}{10}{subsubsection.3.4.1.5}\protected@file@percent }
\newlabel{struct__snmp2influxdb__config___aa33fccfb51217ab6eb7ec3035be78c41}{{3.4.1.5}{10}{\texorpdfstring {CryptProto}{CryptProto}}{subsubsection.3.4.1.5}{}}
\@writefile{toc}{\contentsline {subsubsection}{\numberline {3.4.1.6}frequency}{10}{subsubsection.3.4.1.6}\protected@file@percent }
\newlabel{struct__snmp2influxdb__config___a265efa9c09179f2b0d981599f4dcf788}{{3.4.1.6}{10}{\texorpdfstring {frequency}{frequency}}{subsubsection.3.4.1.6}{}}
\@writefile{toc}{\contentsline {subsubsection}{\numberline {3.4.1.7}influx\_base}{10}{subsubsection.3.4.1.7}\protected@file@percent }
\newlabel{struct__snmp2influxdb__config___af64773fe8b09a7b8fb955ae532c96562}{{3.4.1.7}{10}{\texorpdfstring {influx\_base}{influx\_base}}{subsubsection.3.4.1.7}{}}
\@writefile{toc}{\contentsline {subsubsection}{\numberline {3.4.1.8}influx\_host}{11}{subsubsection.3.4.1.8}\protected@file@percent }
\newlabel{struct__snmp2influxdb__config___acc4d81c38d93472197291856645b6f07}{{3.4.1.8}{11}{\texorpdfstring {influx\_host}{influx\_host}}{subsubsection.3.4.1.8}{}}
\@writefile{toc}{\contentsline {subsubsection}{\numberline {3.4.1.9}influx\_pass}{11}{subsubsection.3.4.1.9}\protected@file@percent }
\newlabel{struct__snmp2influxdb__config___aa9d71791585fc6a0c856f630599ffc19}{{3.4.1.9}{11}{\texorpdfstring {influx\_pass}{influx\_pass}}{subsubsection.3.4.1.9}{}}
\@writefile{toc}{\contentsline {subsubsection}{\numberline {3.4.1.10}influx\_user}{11}{subsubsection.3.4.1.10}\protected@file@percent }
\newlabel{struct__snmp2influxdb__config___a3170e583efd850ecd90babea762696ce}{{3.4.1.10}{11}{\texorpdfstring {influx\_user}{influx\_user}}{subsubsection.3.4.1.10}{}}
\@writefile{toc}{\contentsline {subsubsection}{\numberline {3.4.1.11}nb\_oids}{11}{subsubsection.3.4.1.11}\protected@file@percent }
\newlabel{struct__snmp2influxdb__config___a2f871b33aa2a4969b2cc9ebcaa780aac}{{3.4.1.11}{11}{\texorpdfstring {nb\_oids}{nb\_oids}}{subsubsection.3.4.1.11}{}}
\@writefile{toc}{\contentsline {subsubsection}{\numberline {3.4.1.12}oids}{11}{subsubsection.3.4.1.12}\protected@file@percent }
\newlabel{struct__snmp2influxdb__config___ad1d856e6542ed7a03704a91b821d1479}{{3.4.1.12}{11}{\texorpdfstring {oids}{oids}}{subsubsection.3.4.1.12}{}}
\@writefile{toc}{\contentsline {subsubsection}{\numberline {3.4.1.13}peername}{11}{subsubsection.3.4.1.13}\protected@file@percent }
\newlabel{struct__snmp2influxdb__config___a272d2432050a6293b7696c4f77de508b}{{3.4.1.13}{11}{\texorpdfstring {peername}{peername}}{subsubsection.3.4.1.13}{}}
\@writefile{toc}{\contentsline {subsubsection}{\numberline {3.4.1.14}sec\_level}{11}{subsubsection.3.4.1.14}\protected@file@percent }
\newlabel{struct__snmp2influxdb__config___a2af6783cb3349ab6113b44730f5d8e5f}{{3.4.1.14}{11}{\texorpdfstring {sec\_level}{sec\_level}}{subsubsection.3.4.1.14}{}}
\@writefile{toc}{\contentsline {subsubsection}{\numberline {3.4.1.15}tags}{11}{subsubsection.3.4.1.15}\protected@file@percent }
\newlabel{struct__snmp2influxdb__config___a98e519db2d84f7604229f15321a0db62}{{3.4.1.15}{11}{\texorpdfstring {tags}{tags}}{subsubsection.3.4.1.15}{}}
\@writefile{toc}{\contentsline {subsubsection}{\numberline {3.4.1.16}username}{12}{subsubsection.3.4.1.16}\protected@file@percent }
\newlabel{struct__snmp2influxdb__config___a451b4b590afee8edcd2d5c8e3874839f}{{3.4.1.16}{12}{\texorpdfstring {username}{username}}{subsubsection.3.4.1.16}{}}
\@writefile{toc}{\contentsline {subsubsection}{\numberline {3.4.1.17}version}{12}{subsubsection.3.4.1.17}\protected@file@percent }
\@writefile{toc}{\contentsline {section}{\numberline {3.5}Référence de la structure \discretionary {\mbox  {\scriptsize  $\hookleftarrow  $}}{}{}\_\discretionary {\mbox  {\scriptsize  $\hookleftarrow  $}}{}{}snmp2influxdb\discretionary {\mbox  {\scriptsize  $\hookleftarrow  $}}{}{}\_\discretionary {\mbox  {\scriptsize  $\hookleftarrow  $}}{}{}oid\discretionary {\mbox  {\scriptsize  $\hookleftarrow  $}}{}{}\_\discretionary {\mbox  {\scriptsize  $\hookleftarrow  $}}{}{}}{12}{section.3.5}\protected@file@percent }
\newlabel{struct__snmp2influxdb__oid__}{{3.5}{12}{Référence de la structure \+\_\+snmp2influxdb\+\_\+oid\+\_\+}{section.3.5}{}}
\@writefile{toc}{\contentsline {subsection}{\numberline {3.5.1}Documentation des champs}{12}{subsection.3.5.1}\protected@file@percent }
\newlabel{struct__snmp2influxdb__oid___a07fac4fb3d44bc24058ddd29e50f178d}{{3.5.1}{12}{Documentation des champs}{subsection.3.5.1}{}}
\@writefile{toc}{\contentsline {subsubsection}{\numberline {3.5.1.1}name}{12}{subsubsection.3.5.1.1}\protected@file@percent }
\newlabel{struct__snmp2influxdb__oid___a9ff6507ea44f530364e1b58a9d036ae2}{{3.5.1.1}{12}{\texorpdfstring {name}{name}}{subsubsection.3.5.1.1}{}}
\@writefile{toc}{\contentsline {subsubsection}{\numberline {3.5.1.2}oid}{12}{subsubsection.3.5.1.2}\protected@file@percent }
\newlabel{struct__snmp2influxdb__oid___abc9329e0061d6981bf2587a1ef874d96}{{3.5.1.2}{12}{\texorpdfstring {oid}{oid}}{subsubsection.3.5.1.2}{}}
\@writefile{toc}{\contentsline {subsubsection}{\numberline {3.5.1.3}oid\_len}{12}{subsubsection.3.5.1.3}\protected@file@percent }
\@writefile{toc}{\contentsline {section}{\numberline {3.6}Référence de la structure tags\discretionary {\mbox  {\scriptsize  $\hookleftarrow  $}}{}{}::\discretionary {\mbox  {\scriptsize  $\hookleftarrow  $}}{}{}\_\discretionary {\mbox  {\scriptsize  $\hookleftarrow  $}}{}{}tag\discretionary {\mbox  {\scriptsize  $\hookleftarrow  $}}{}{}\_\discretionary {\mbox  {\scriptsize  $\hookleftarrow  $}}{}{}}{13}{section.3.6}\protected@file@percent }
\newlabel{structtags_1_1__tag__}{{3.6}{13}{Référence de la structure tags\+::\+\_\+tag\+\_\+}{section.3.6}{}}
\@writefile{toc}{\contentsline {subsection}{\numberline {3.6.1}Documentation des champs}{13}{subsection.3.6.1}\protected@file@percent }
\newlabel{structtags_1_1__tag___ad2e2216eca3ca3f25287c79dfabdc559}{{3.6.1}{13}{Documentation des champs}{subsection.3.6.1}{}}
\@writefile{toc}{\contentsline {subsubsection}{\numberline {3.6.1.1}val}{13}{subsubsection.3.6.1.1}\protected@file@percent }
\newlabel{structtags_1_1__tag___aef9ffd7eb84e13eb726037c49d19b7f8}{{3.6.1.1}{13}{\texorpdfstring {val}{val}}{subsubsection.3.6.1.1}{}}
\@writefile{toc}{\contentsline {subsubsection}{\numberline {3.6.1.2}var}{13}{subsubsection.3.6.1.2}\protected@file@percent }
\@writefile{toc}{\contentsline {section}{\numberline {3.7}Référence de la structure mesure}{13}{section.3.7}\protected@file@percent }
\newlabel{structmesure}{{3.7}{13}{Référence de la structure mesure}{section.3.7}{}}
\@writefile{toc}{\contentsline {subsection}{\numberline {3.7.1}Documentation des champs}{14}{subsection.3.7.1}\protected@file@percent }
\newlabel{structmesure_a5d57ec068699ac4c3c8ee7f34c200188}{{3.7.1}{14}{Documentation des champs}{subsection.3.7.1}{}}
\@writefile{toc}{\contentsline {subsubsection}{\numberline {3.7.1.1}elems}{14}{subsubsection.3.7.1.1}\protected@file@percent }
\newlabel{structmesure_a779ab7eb6c7e836a366e06c26c6e7351}{{3.7.1.1}{14}{\texorpdfstring {elems}{elems}}{subsubsection.3.7.1.1}{}}
\@writefile{toc}{\contentsline {subsubsection}{\numberline {3.7.1.2}index\_filter}{14}{subsubsection.3.7.1.2}\protected@file@percent }
\newlabel{structmesure_a3f98cbff3e9a62570c975906f1b70c09}{{3.7.1.2}{14}{\texorpdfstring {index\_filter}{index\_filter}}{subsubsection.3.7.1.2}{}}
\@writefile{toc}{\contentsline {subsubsection}{\numberline {3.7.1.3}name}{14}{subsubsection.3.7.1.3}\protected@file@percent }
\newlabel{structmesure_ab655306c3becc0453c462fce56aaf8c4}{{3.7.1.3}{14}{\texorpdfstring {name}{name}}{subsubsection.3.7.1.3}{}}
\@writefile{toc}{\contentsline {subsubsection}{\numberline {3.7.1.4}nb\_elems}{14}{subsubsection.3.7.1.4}\protected@file@percent }
\newlabel{structmesure_a4648fe47ca06fce56380442725dcbe45}{{3.7.1.4}{14}{\texorpdfstring {nb\_elems}{nb\_elems}}{subsubsection.3.7.1.4}{}}
\@writefile{toc}{\contentsline {subsubsection}{\numberline {3.7.1.5}nb\_index\_filter}{14}{subsubsection.3.7.1.5}\protected@file@percent }
\@writefile{toc}{\contentsline {section}{\numberline {3.8}Référence de la structure PARAM}{14}{section.3.8}\protected@file@percent }
\newlabel{structPARAM}{{3.8}{14}{Référence de la structure PARAM}{section.3.8}{}}
\@writefile{toc}{\contentsline {subsection}{\numberline {3.8.1}Description détaillée}{15}{subsection.3.8.1}\protected@file@percent }
\@writefile{toc}{\contentsline {subsection}{\numberline {3.8.2}Documentation des champs}{15}{subsection.3.8.2}\protected@file@percent }
\newlabel{structPARAM_aabda785534f85b2dce90717057e26bbf}{{3.8.2}{15}{Documentation des champs}{subsection.3.8.2}{}}
\@writefile{toc}{\contentsline {subsubsection}{\numberline {3.8.2.1}nb\_valeurs}{15}{subsubsection.3.8.2.1}\protected@file@percent }
\newlabel{structPARAM_afe842b308680c5dd514a3aea1d1388ab}{{3.8.2.1}{15}{\texorpdfstring {nb\_valeurs}{nb\_valeurs}}{subsubsection.3.8.2.1}{}}
\@writefile{toc}{\contentsline {subsubsection}{\numberline {3.8.2.2}nom}{15}{subsubsection.3.8.2.2}\protected@file@percent }
\newlabel{structPARAM_ac00800c7e59efa59cd77a3ff9e77ce45}{{3.8.2.2}{15}{\texorpdfstring {nom}{nom}}{subsubsection.3.8.2.2}{}}
\@writefile{toc}{\contentsline {subsubsection}{\numberline {3.8.2.3}valeurs}{15}{subsubsection.3.8.2.3}\protected@file@percent }
\@writefile{toc}{\contentsline {section}{\numberline {3.9}Référence de la structure tags}{15}{section.3.9}\protected@file@percent }
\newlabel{structtags}{{3.9}{15}{Référence de la structure tags}{section.3.9}{}}
\@writefile{toc}{\contentsline {subsection}{\numberline {3.9.1}Documentation des champs}{16}{subsection.3.9.1}\protected@file@percent }
\newlabel{structtags_af53e99db6de285bcab998dc376afb1bc}{{3.9.1}{16}{Documentation des champs}{subsection.3.9.1}{}}
\@writefile{toc}{\contentsline {subsubsection}{\numberline {3.9.1.1}data}{16}{subsubsection.3.9.1.1}\protected@file@percent }
\newlabel{structtags_a00af4a81b0b6da47d7de7306b8b905be}{{3.9.1.1}{16}{\texorpdfstring {data}{data}}{subsubsection.3.9.1.1}{}}
\@writefile{toc}{\contentsline {subsubsection}{\numberline {3.9.1.2}nb}{16}{subsubsection.3.9.1.2}\protected@file@percent }
\@writefile{toc}{\contentsline {chapter}{\numberline {4}Documentation des fichiers}{17}{chapter.4}\protected@file@percent }
\@writefile{lof}{\addvspace {10\p@ }}
\@writefile{lot}{\addvspace {10\p@ }}
\@writefile{toc}{\contentsline {section}{\numberline {4.1}Référence du fichier src/parse\discretionary {\mbox  {\scriptsize  $\hookleftarrow  $}}{}{}\_\discretionary {\mbox  {\scriptsize  $\hookleftarrow  $}}{}{}config.c}{17}{section.4.1}\protected@file@percent }
\newlabel{parse__config_8c}{{4.1}{17}{Référence du fichier src/parse\+\_\+config.c}{section.4.1}{}}
\@writefile{toc}{\contentsline {subsection}{\numberline {4.1.1}Description détaillée}{18}{subsection.4.1.1}\protected@file@percent }
\@writefile{toc}{\contentsline {subsection}{\numberline {4.1.2}Documentation des macros}{19}{subsection.4.1.2}\protected@file@percent }
\newlabel{parse__config_8c_a1d2d133bd2945e7d85f3c72c9c810a13}{{4.1.2}{19}{Documentation des macros}{subsection.4.1.2}{}}
\@writefile{toc}{\contentsline {subsubsection}{\numberline {4.1.2.1}MY\_CLOSE}{19}{subsubsection.4.1.2.1}\protected@file@percent }
\newlabel{parse__config_8c_ad7fc9bf95792eb91e95bf644cc1d835b}{{4.1.2.1}{19}{\texorpdfstring {MY\_CLOSE}{MY\_CLOSE}}{subsubsection.4.1.2.1}{}}
\gdef \LT@ii {\LT@entry 
    {3}{24.80576pt}\LT@entry 
    {3}{166.92659pt}}
\@writefile{toc}{\contentsline {subsubsection}{\numberline {4.1.2.2}MY\_GETC}{20}{subsubsection.4.1.2.2}\protected@file@percent }
\newlabel{parse__config_8c_a2b1e81355bcdf4aebd4342f715cf3bec}{{4.1.2.2}{20}{\texorpdfstring {MY\_GETC}{MY\_GETC}}{subsubsection.4.1.2.2}{}}
\@writefile{toc}{\contentsline {subsubsection}{\numberline {4.1.2.3}MY\_OPEN}{20}{subsubsection.4.1.2.3}\protected@file@percent }
\newlabel{parse__config_8c_a270d07642faba9eae0ddd70d5804076e}{{4.1.2.3}{20}{\texorpdfstring {MY\_OPEN}{MY\_OPEN}}{subsubsection.4.1.2.3}{}}
\@writefile{toc}{\contentsline {subsubsection}{\numberline {4.1.2.4}str\_dup}{20}{subsubsection.4.1.2.4}\protected@file@percent }
\@writefile{toc}{\contentsline {subsection}{\numberline {4.1.3}Documentation des fonctions}{20}{subsection.4.1.3}\protected@file@percent }
\newlabel{parse__config_8c_ae919a797578a7759eb4935c0ed8e806b}{{4.1.3}{20}{Documentation des fonctions}{subsection.4.1.3}{}}
\@writefile{toc}{\contentsline {subsubsection}{\numberline {4.1.3.1}detruire\_configuration()}{20}{subsubsection.4.1.3.1}\protected@file@percent }
\newlabel{parse__config_8c_ad70351242caba22088710eca363a4f08}{{4.1.3.1}{20}{\texorpdfstring {detruire\_configuration()}{detruire\_configuration()}}{table.4.1}{}}
\@writefile{toc}{\contentsline {subsubsection}{\numberline {4.1.3.2}detruire\_liste\_configuration()}{20}{subsubsection.4.1.3.2}\protected@file@percent }
\gdef \LT@iii {\LT@entry 
    {3}{34.80467pt}\LT@entry 
    {3}{363.76207pt}}
\gdef \LT@iv {\LT@entry 
    {3}{25.80473pt}\LT@entry 
    {3}{86.34242pt}}
\gdef \LT@v {\LT@entry 
    {3}{26.80383pt}\LT@entry 
    {3}{95.42322pt}}
\newlabel{parse__config_8c_a486ccc92c99b990484cbcc4ce14c84a9}{{4.1.3.2}{21}{\texorpdfstring {detruire\_liste\_configuration()}{detruire\_liste\_configuration()}}{table.4.2}{}}
\@writefile{toc}{\contentsline {subsubsection}{\numberline {4.1.3.3}detruire\_param()}{21}{subsubsection.4.1.3.3}\protected@file@percent }
\newlabel{parse__config_8c_a499f99c67030a8bcd485e54006d89e70}{{4.1.3.3}{21}{\texorpdfstring {detruire\_param()}{detruire\_param()}}{table.4.3}{}}
\@writefile{toc}{\contentsline {subsubsection}{\numberline {4.1.3.4}detruire\_section()}{21}{subsubsection.4.1.3.4}\protected@file@percent }
\gdef \LT@vi {\LT@entry 
    {3}{41.3115pt}\LT@entry 
    {3}{413.93262pt}}
\newlabel{parse__config_8c_a1c104b9989de79046b9122c3aa688d09}{{4.1.3.4}{22}{\texorpdfstring {detruire\_section()}{detruire\_section()}}{table.4.4}{}}
\@writefile{toc}{\contentsline {subsubsection}{\numberline {4.1.3.5}liste\_parametres\_configuration()}{22}{subsubsection.4.1.3.5}\protected@file@percent }
\newlabel{parse__config_8c_a2481c6d930e534148e908cbbea81c350}{{4.1.3.5}{22}{\texorpdfstring {liste\_parametres\_configuration()}{liste\_parametres\_configuration()}}{table.4.5}{}}
\@writefile{toc}{\contentsline {subsubsection}{\numberline {4.1.3.6}liste\_sections\_configuration()}{22}{subsubsection.4.1.3.6}\protected@file@percent }
\gdef \LT@vii {\LT@entry 
    {3}{34.80467pt}\LT@entry 
    {3}{420.43944pt}}
\gdef \LT@viii {\LT@entry 
    {3}{41.3115pt}\LT@entry 
    {3}{203.94276pt}}
\gdef \LT@ix {\LT@entry 
    {3}{41.3115pt}\LT@entry 
    {3}{165.37001pt}}
\newlabel{parse__config_8c_a4dba5e4654cac896e69ffc86b781bbd6}{{4.1.3.6}{23}{\texorpdfstring {liste\_sections\_configuration()}{liste\_sections\_configuration()}}{table.4.6}{}}
\@writefile{toc}{\contentsline {subsubsection}{\numberline {4.1.3.7}nb\_parametres\_configuration()}{23}{subsubsection.4.1.3.7}\protected@file@percent }
\newlabel{parse__config_8c_a249a790ccdcb5a489c8cd3746adb8cb8}{{4.1.3.7}{23}{\texorpdfstring {nb\_parametres\_configuration()}{nb\_parametres\_configuration()}}{table.4.7}{}}
\@writefile{toc}{\contentsline {subsubsection}{\numberline {4.1.3.8}nb\_sections\_configuration()}{23}{subsubsection.4.1.3.8}\protected@file@percent }
\gdef \LT@x {\LT@entry 
    {3}{46.3154pt}\LT@entry 
    {3}{192.19838pt}}
\gdef \LT@xi {\LT@entry 
    {3}{40.80743pt}\LT@entry 
    {3}{244.54112pt}}
\newlabel{parse__config_8c_a0f2cac66003284267bb3e3b3e0948150}{{4.1.3.8}{24}{\texorpdfstring {nb\_sections\_configuration()}{nb\_sections\_configuration()}}{table.4.8}{}}
\@writefile{toc}{\contentsline {subsubsection}{\numberline {4.1.3.9}parse\_configuration()}{24}{subsubsection.4.1.3.9}\protected@file@percent }
\newlabel{parse__config_8c_a8a454c990b7f0d4d704e55015dd47258}{{4.1.3.9}{24}{\texorpdfstring {parse\_configuration()}{parse\_configuration()}}{table.4.9}{}}
\@writefile{toc}{\contentsline {subsubsection}{\numberline {4.1.3.10}read\_param()}{24}{subsubsection.4.1.3.10}\protected@file@percent }
\gdef \LT@xii {\LT@entry 
    {3}{40.80743pt}\LT@entry 
    {3}{187.29333pt}}
\gdef \LT@xiii {\LT@entry 
    {3}{40.80743pt}\LT@entry 
    {3}{244.54112pt}}
\newlabel{parse__config_8c_a3685da4cf8580666d80b4486d5f8b513}{{4.1.3.10}{25}{\texorpdfstring {read\_param()}{read\_param()}}{table.4.10}{}}
\@writefile{toc}{\contentsline {subsubsection}{\numberline {4.1.3.11}read\_section()}{25}{subsubsection.4.1.3.11}\protected@file@percent }
\newlabel{parse__config_8c_a14800b5793222f0cf3d4adffda5cb6bd}{{4.1.3.11}{25}{\texorpdfstring {read\_section()}{read\_section()}}{table.4.11}{}}
\@writefile{toc}{\contentsline {subsubsection}{\numberline {4.1.3.12}read\_string()}{25}{subsubsection.4.1.3.12}\protected@file@percent }
\newlabel{parse__config_8c_a8a11349e9ca6dd15285449533b4096d7}{{4.1.3.12}{25}{\texorpdfstring {read\_string()}{read\_string()}}{table.4.12}{}}
\gdef \LT@xiv {\LT@entry 
    {3}{40.80743pt}\LT@entry 
    {3}{244.54112pt}}
\gdef \LT@xv {\LT@entry 
    {3}{40.80743pt}\LT@entry 
    {3}{179.82347pt}}
\@writefile{toc}{\contentsline {subsubsection}{\numberline {4.1.3.13}read\_valeurs()}{26}{subsubsection.4.1.3.13}\protected@file@percent }
\newlabel{parse__config_8c_aa8ec9e7fb43ea18a4e7a83a1c46bbf0e}{{4.1.3.13}{26}{\texorpdfstring {read\_valeurs()}{read\_valeurs()}}{table.4.13}{}}
\@writefile{toc}{\contentsline {subsubsection}{\numberline {4.1.3.14}store\_val()}{26}{subsubsection.4.1.3.14}\protected@file@percent }
\newlabel{parse__config_8c_ab56e87d166e0d6586ab6e8587dd9182c}{{4.1.3.14}{26}{\texorpdfstring {store\_val()}{store\_val()}}{table.4.14}{}}
\@writefile{toc}{\contentsline {subsubsection}{\numberline {4.1.3.15}valeurs\_configuration()}{26}{subsubsection.4.1.3.15}\protected@file@percent }
\gdef \LT@xvi {\LT@entry 
    {3}{53.72218pt}\LT@entry 
    {3}{401.52193pt}}
\gdef \LT@xvii {\LT@entry 
    {3}{53.72218pt}\LT@entry 
    {3}{401.52193pt}}
\newlabel{parse__config_8c_ac45750e6465199af106badbf42f3019e}{{4.1.3.15}{27}{\texorpdfstring {valeurs\_configuration()}{valeurs\_configuration()}}{table.4.15}{}}
\@writefile{toc}{\contentsline {subsubsection}{\numberline {4.1.3.16}valeurs\_configuration\_n()}{27}{subsubsection.4.1.3.16}\protected@file@percent }
\@writefile{toc}{\contentsline {section}{\numberline {4.2}Référence du fichier src/parse\discretionary {\mbox  {\scriptsize  $\hookleftarrow  $}}{}{}\_\discretionary {\mbox  {\scriptsize  $\hookleftarrow  $}}{}{}config.h}{28}{section.4.2}\protected@file@percent }
\newlabel{parse__config_8h}{{4.2}{28}{Référence du fichier src/parse\+\_\+config.h}{section.4.2}{}}
\@writefile{toc}{\contentsline {subsection}{\numberline {4.2.1}Description détaillée}{29}{subsection.4.2.1}\protected@file@percent }
\@writefile{toc}{\contentsline {subsection}{\numberline {4.2.2}Documentation des macros}{29}{subsection.4.2.2}\protected@file@percent }
\newlabel{parse__config_8h_a18f3e90363dd946504d2bba77ce6b28b}{{4.2.2}{29}{Documentation des macros}{subsection.4.2.2}{}}
\@writefile{toc}{\contentsline {subsubsection}{\numberline {4.2.2.1}DLLAPI}{29}{subsubsection.4.2.2.1}\protected@file@percent }
\newlabel{parse__config_8h_a54b25836118bfac94a53a7b790f3ccb2}{{4.2.2.1}{29}{\texorpdfstring {DLLAPI}{DLLAPI}}{subsubsection.4.2.2.1}{}}
\@writefile{toc}{\contentsline {subsubsection}{\numberline {4.2.2.2}DLLCALL}{29}{subsubsection.4.2.2.2}\protected@file@percent }
\@writefile{toc}{\contentsline {subsection}{\numberline {4.2.3}Documentation des définitions de type}{29}{subsection.4.2.3}\protected@file@percent }
\newlabel{parse__config_8h_a721525ee183beb9d24ddec170aea5600}{{4.2.3}{29}{Documentation des définitions de type}{subsection.4.2.3}{}}
\@writefile{toc}{\contentsline {subsubsection}{\numberline {4.2.3.1}ERR\_FONCT}{29}{subsubsection.4.2.3.1}\protected@file@percent }
\@writefile{toc}{\contentsline {subsection}{\numberline {4.2.4}Documentation des fonctions}{29}{subsection.4.2.4}\protected@file@percent }
\newlabel{parse__config_8h_aac4b6103fe8edfdec6130ee119910edc}{{4.2.4}{29}{Documentation des fonctions}{subsection.4.2.4}{}}
\@writefile{toc}{\contentsline {subsubsection}{\numberline {4.2.4.1}detruire\_configuration()}{29}{subsubsection.4.2.4.1}\protected@file@percent }
\gdef \LT@xviii {\LT@entry 
    {3}{24.80576pt}\LT@entry 
    {3}{166.92659pt}}
\gdef \LT@xix {\LT@entry 
    {3}{34.80467pt}\LT@entry 
    {3}{363.76207pt}}
\newlabel{parse__config_8h_ad70351242caba22088710eca363a4f08}{{4.2.4.1}{30}{\texorpdfstring {detruire\_configuration()}{detruire\_configuration()}}{table.4.17}{}}
\@writefile{toc}{\contentsline {subsubsection}{\numberline {4.2.4.2}detruire\_liste\_configuration()}{30}{subsubsection.4.2.4.2}\protected@file@percent }
\newlabel{parse__config_8h_ad30bbba0aa26e7610133b1c6651e5019}{{4.2.4.2}{30}{\texorpdfstring {detruire\_liste\_configuration()}{detruire\_liste\_configuration()}}{table.4.18}{}}
\@writefile{toc}{\contentsline {subsubsection}{\numberline {4.2.4.3}liste\_parametres\_configuration()}{30}{subsubsection.4.2.4.3}\protected@file@percent }
\gdef \LT@xx {\LT@entry 
    {3}{41.3115pt}\LT@entry 
    {3}{413.93262pt}}
\gdef \LT@xxi {\LT@entry 
    {3}{34.80467pt}\LT@entry 
    {3}{420.43944pt}}
\newlabel{parse__config_8h_a0c35a6870075d00fde9083de8cc01208}{{4.2.4.3}{31}{\texorpdfstring {liste\_parametres\_configuration()}{liste\_parametres\_configuration()}}{table.4.19}{}}
\@writefile{toc}{\contentsline {subsubsection}{\numberline {4.2.4.4}liste\_sections\_configuration()}{31}{subsubsection.4.2.4.4}\protected@file@percent }
\newlabel{parse__config_8h_a41b0df71c31feb8bd43595c32691988b}{{4.2.4.4}{31}{\texorpdfstring {liste\_sections\_configuration()}{liste\_sections\_configuration()}}{table.4.20}{}}
\@writefile{toc}{\contentsline {subsubsection}{\numberline {4.2.4.5}nb\_parametres\_configuration()}{31}{subsubsection.4.2.4.5}\protected@file@percent }
\gdef \LT@xxii {\LT@entry 
    {3}{41.3115pt}\LT@entry 
    {3}{203.94276pt}}
\gdef \LT@xxiii {\LT@entry 
    {3}{41.3115pt}\LT@entry 
    {3}{165.37001pt}}
\newlabel{parse__config_8h_a9f7e0fc49191da54aa888f76fc2685e9}{{4.2.4.5}{32}{\texorpdfstring {nb\_parametres\_configuration()}{nb\_parametres\_configuration()}}{table.4.21}{}}
\@writefile{toc}{\contentsline {subsubsection}{\numberline {4.2.4.6}nb\_sections\_configuration()}{32}{subsubsection.4.2.4.6}\protected@file@percent }
\newlabel{parse__config_8h_a723737d841fd21efb1353d89c24be170}{{4.2.4.6}{32}{\texorpdfstring {nb\_sections\_configuration()}{nb\_sections\_configuration()}}{table.4.22}{}}
\@writefile{toc}{\contentsline {subsubsection}{\numberline {4.2.4.7}parse\_configuration()}{32}{subsubsection.4.2.4.7}\protected@file@percent }
\gdef \LT@xxiv {\LT@entry 
    {3}{46.3154pt}\LT@entry 
    {3}{192.19838pt}}
\gdef \LT@xxv {\LT@entry 
    {3}{53.72218pt}\LT@entry 
    {3}{401.52193pt}}
\newlabel{parse__config_8h_a2b6891265956cfa0cfdce2cf936304a0}{{4.2.4.7}{33}{\texorpdfstring {parse\_configuration()}{parse\_configuration()}}{table.4.23}{}}
\@writefile{toc}{\contentsline {subsubsection}{\numberline {4.2.4.8}valeurs\_configuration()}{33}{subsubsection.4.2.4.8}\protected@file@percent }
\newlabel{parse__config_8h_ae88f43daef7c8215829e3caf9928c7b6}{{4.2.4.8}{33}{\texorpdfstring {valeurs\_configuration()}{valeurs\_configuration()}}{table.4.24}{}}
\@writefile{toc}{\contentsline {subsubsection}{\numberline {4.2.4.9}valeurs\_configuration\_n()}{33}{subsubsection.4.2.4.9}\protected@file@percent }
\gdef \LT@xxvi {\LT@entry 
    {3}{53.72218pt}\LT@entry 
    {3}{401.52193pt}}
\@writefile{toc}{\contentsline {section}{\numberline {4.3}parse\discretionary {\mbox  {\scriptsize  $\hookleftarrow  $}}{}{}\_\discretionary {\mbox  {\scriptsize  $\hookleftarrow  $}}{}{}config.\discretionary {\mbox  {\scriptsize  $\hookleftarrow  $}}{}{}h}{34}{section.4.3}\protected@file@percent }
\newlabel{parse__config_8h_source}{{4.3}{34}{parse\+\_\+config.\+h}{section.4.3}{}}
\@writefile{toc}{\contentsline {section}{\numberline {4.4}Référence du fichier src/parse\discretionary {\mbox  {\scriptsize  $\hookleftarrow  $}}{}{}\_\discretionary {\mbox  {\scriptsize  $\hookleftarrow  $}}{}{}configP.h}{35}{section.4.4}\protected@file@percent }
\newlabel{parse__configP_8h}{{4.4}{35}{Référence du fichier src/parse\+\_\+configP.h}{section.4.4}{}}
\@writefile{toc}{\contentsline {subsection}{\numberline {4.4.1}Description détaillée}{36}{subsection.4.4.1}\protected@file@percent }
\@writefile{toc}{\contentsline {subsection}{\numberline {4.4.2}Documentation des macros}{37}{subsection.4.4.2}\protected@file@percent }
\newlabel{parse__configP_8h_a57a35bfd7d13bdfab37a48171286ecee}{{4.4.2}{37}{Documentation des macros}{subsection.4.4.2}{}}
\@writefile{toc}{\contentsline {subsubsection}{\numberline {4.4.2.1}DPRINT}{37}{subsubsection.4.4.2.1}\protected@file@percent }
\newlabel{parse__configP_8h_a2da5b460f025f7910a7bd422d956af64}{{4.4.2.1}{37}{\texorpdfstring {DPRINT}{DPRINT}}{subsubsection.4.4.2.1}{}}
\@writefile{toc}{\contentsline {subsubsection}{\numberline {4.4.2.2}EAT\_TO\_EOL}{37}{subsubsection.4.4.2.2}\protected@file@percent }
\newlabel{parse__configP_8h_a649b4aec0995f38896eccf31999d8ab7}{{4.4.2.2}{37}{\texorpdfstring {EAT\_TO\_EOL}{EAT\_TO\_EOL}}{subsubsection.4.4.2.2}{}}
\@writefile{toc}{\contentsline {subsubsection}{\numberline {4.4.2.3}PARAM\_NAME\_LEN}{37}{subsubsection.4.4.2.3}\protected@file@percent }
\newlabel{parse__configP_8h_a14189166231bbb9515ead574ced8456c}{{4.4.2.3}{37}{\texorpdfstring {PARAM\_NAME\_LEN}{PARAM\_NAME\_LEN}}{subsubsection.4.4.2.3}{}}
\@writefile{toc}{\contentsline {subsubsection}{\numberline {4.4.2.4}PRINT\_ERR}{37}{subsubsection.4.4.2.4}\protected@file@percent }
\newlabel{parse__configP_8h_a8342ca5f3bc9c97e91e5c4a972fd2508}{{4.4.2.4}{37}{\texorpdfstring {PRINT\_ERR}{PRINT\_ERR}}{subsubsection.4.4.2.4}{}}
\@writefile{toc}{\contentsline {subsubsection}{\numberline {4.4.2.5}SECTION\_NAME\_LEN}{38}{subsubsection.4.4.2.5}\protected@file@percent }
\newlabel{parse__configP_8h_a7085b321f40c7f134f2066ff46103ee2}{{4.4.2.5}{38}{\texorpdfstring {SECTION\_NAME\_LEN}{SECTION\_NAME\_LEN}}{subsubsection.4.4.2.5}{}}
\@writefile{toc}{\contentsline {subsubsection}{\numberline {4.4.2.6}VALEUR\_LEN}{38}{subsubsection.4.4.2.6}\protected@file@percent }
\@writefile{toc}{\contentsline {subsection}{\numberline {4.4.3}Documentation des définitions de type}{38}{subsection.4.4.3}\protected@file@percent }
\newlabel{parse__configP_8h_ae7dd3a383485bf29cfeeffc07f1c8439}{{4.4.3}{38}{Documentation des définitions de type}{subsection.4.4.3}{}}
\@writefile{toc}{\contentsline {subsubsection}{\numberline {4.4.3.1}CONF}{38}{subsubsection.4.4.3.1}\protected@file@percent }
\newlabel{parse__configP_8h_a82ff2697d7f003508282a2b54cb51261}{{4.4.3.1}{38}{\texorpdfstring {CONF}{CONF}}{subsubsection.4.4.3.1}{}}
\@writefile{toc}{\contentsline {subsubsection}{\numberline {4.4.3.2}MY\_FILE\_t}{38}{subsubsection.4.4.3.2}\protected@file@percent }
\newlabel{parse__configP_8h_ac27becfe523fc65f200fb6d38edcb66d}{{4.4.3.2}{38}{\texorpdfstring {MY\_FILE\_t}{MY\_FILE\_t}}{subsubsection.4.4.3.2}{}}
\@writefile{toc}{\contentsline {subsubsection}{\numberline {4.4.3.3}PARAM}{38}{subsubsection.4.4.3.3}\protected@file@percent }
\newlabel{parse__configP_8h_a02e6fbc95195ff628d747888d2ac9f3e}{{4.4.3.3}{38}{\texorpdfstring {PARAM}{PARAM}}{subsubsection.4.4.3.3}{}}
\@writefile{toc}{\contentsline {subsubsection}{\numberline {4.4.3.4}SECTION}{38}{subsubsection.4.4.3.4}\protected@file@percent }
\@writefile{toc}{\contentsline {subsection}{\numberline {4.4.4}Documentation des fonctions}{38}{subsection.4.4.4}\protected@file@percent }
\newlabel{parse__configP_8h_a3427ba8aaa3e86b9bf9d6dc0b7f3d742}{{4.4.4}{38}{Documentation des fonctions}{subsection.4.4.4}{}}
\@writefile{toc}{\contentsline {subsubsection}{\numberline {4.4.4.1}detruire\_param()}{39}{subsubsection.4.4.4.1}\protected@file@percent }
\newlabel{parse__configP_8h_abf80f49b52e5ccc242e752595b1d851e}{{4.4.4.1}{39}{\texorpdfstring {detruire\_param()}{detruire\_param()}}{subsubsection.4.4.4.1}{}}
\@writefile{toc}{\contentsline {subsubsection}{\numberline {4.4.4.2}detruire\_section()}{39}{subsubsection.4.4.4.2}\protected@file@percent }
\newlabel{parse__configP_8h_aad524e784c808a1ff8b38e8f670c6927}{{4.4.4.2}{39}{\texorpdfstring {detruire\_section()}{detruire\_section()}}{subsubsection.4.4.4.2}{}}
\@writefile{toc}{\contentsline {subsubsection}{\numberline {4.4.4.3}read\_param()}{39}{subsubsection.4.4.4.3}\protected@file@percent }
\newlabel{parse__configP_8h_a50248258b780c6d63334ab15098813c1}{{4.4.4.3}{39}{\texorpdfstring {read\_param()}{read\_param()}}{subsubsection.4.4.4.3}{}}
\@writefile{toc}{\contentsline {subsubsection}{\numberline {4.4.4.4}read\_section()}{39}{subsubsection.4.4.4.4}\protected@file@percent }
\newlabel{parse__configP_8h_a7b351900f0078e3c4c19b2dcc581c9ed}{{4.4.4.4}{39}{\texorpdfstring {read\_section()}{read\_section()}}{subsubsection.4.4.4.4}{}}
\@writefile{toc}{\contentsline {subsubsection}{\numberline {4.4.4.5}read\_string()}{39}{subsubsection.4.4.4.5}\protected@file@percent }
\newlabel{parse__configP_8h_aeb1b12ba4663c78b73facc859bc9e9e5}{{4.4.4.5}{39}{\texorpdfstring {read\_string()}{read\_string()}}{subsubsection.4.4.4.5}{}}
\@writefile{toc}{\contentsline {subsubsection}{\numberline {4.4.4.6}read\_valeurs()}{40}{subsubsection.4.4.4.6}\protected@file@percent }
\newlabel{parse__configP_8h_ae6728eb8c5f81bf2040f589555e143a9}{{4.4.4.6}{40}{\texorpdfstring {read\_valeurs()}{read\_valeurs()}}{subsubsection.4.4.4.6}{}}
\@writefile{toc}{\contentsline {subsubsection}{\numberline {4.4.4.7}store\_val()}{40}{subsubsection.4.4.4.7}\protected@file@percent }
\@writefile{toc}{\contentsline {subsection}{\numberline {4.4.5}Documentation des variables}{40}{subsection.4.4.5}\protected@file@percent }
\newlabel{parse__configP_8h_a017a636fcfa4e36b12fee9574c02fbde}{{4.4.5}{40}{Documentation des variables}{subsection.4.4.5}{}}
\@writefile{toc}{\contentsline {subsubsection}{\numberline {4.4.5.1}CONF\_TYPE}{40}{subsubsection.4.4.5.1}\protected@file@percent }
\newlabel{parse__configP_8h_a63dfd1a7fcccbb5388f31bf10760c9f9}{{4.4.5.1}{40}{\texorpdfstring {CONF\_TYPE}{CONF\_TYPE}}{subsubsection.4.4.5.1}{}}
\@writefile{toc}{\contentsline {subsubsection}{\numberline {4.4.5.2}NbErr}{40}{subsubsection.4.4.5.2}\protected@file@percent }
\newlabel{parse__configP_8h_a4c58312aa83dcf010a04fbd0af14389d}{{4.4.5.2}{40}{\texorpdfstring {NbErr}{NbErr}}{subsubsection.4.4.5.2}{}}
\@writefile{toc}{\contentsline {subsubsection}{\numberline {4.4.5.3}NbLignes}{40}{subsubsection.4.4.5.3}\protected@file@percent }
\@writefile{toc}{\contentsline {section}{\numberline {4.5}parse\discretionary {\mbox  {\scriptsize  $\hookleftarrow  $}}{}{}\_\discretionary {\mbox  {\scriptsize  $\hookleftarrow  $}}{}{}config\discretionary {\mbox  {\scriptsize  $\hookleftarrow  $}}{}{}P.\discretionary {\mbox  {\scriptsize  $\hookleftarrow  $}}{}{}h}{41}{section.4.5}\protected@file@percent }
\newlabel{parse__configP_8h_source}{{4.5}{41}{parse\+\_\+config\+P.\+h}{section.4.5}{}}
\@writefile{toc}{\contentsline {section}{\numberline {4.6}Référence du fichier src/\discretionary {\mbox  {\scriptsize  $\hookleftarrow  $}}{}{}Snmp2\discretionary {\mbox  {\scriptsize  $\hookleftarrow  $}}{}{}Influx\discretionary {\mbox  {\scriptsize  $\hookleftarrow  $}}{}{}DB.c}{42}{section.4.6}\protected@file@percent }
\newlabel{Snmp2InfluxDB_8c}{{4.6}{42}{Référence du fichier src/\+Snmp2\+Influx\+DB.c}{section.4.6}{}}
\@writefile{toc}{\contentsline {subsection}{\numberline {4.6.1}Description détaillée}{43}{subsection.4.6.1}\protected@file@percent }
\@writefile{toc}{\contentsline {subsection}{\numberline {4.6.2}Documentation des définitions de type}{43}{subsection.4.6.2}\protected@file@percent }
\newlabel{Snmp2InfluxDB_8c_abf59762839303167623b5fe0e2ef181e}{{4.6.2}{43}{Documentation des définitions de type}{subsection.4.6.2}{}}
\@writefile{toc}{\contentsline {subsubsection}{\numberline {4.6.2.1}\_snmp2influxdb\_config\_t}{43}{subsubsection.4.6.2.1}\protected@file@percent }
\newlabel{Snmp2InfluxDB_8c_ad5c4208870925d8c36c495db40c9b0d2}{{4.6.2.1}{43}{\texorpdfstring {\_snmp2influxdb\_config\_t}{\_snmp2influxdb\_config\_t}}{subsubsection.4.6.2.1}{}}
\@writefile{toc}{\contentsline {subsubsection}{\numberline {4.6.2.2}\_snmp2influxdb\_oid\_t}{43}{subsubsection.4.6.2.2}\protected@file@percent }
\newlabel{Snmp2InfluxDB_8c_a8d2d90597d0a110fe2e60a213ab3d7b5}{{4.6.2.2}{43}{\texorpdfstring {\_snmp2influxdb\_oid\_t}{\_snmp2influxdb\_oid\_t}}{subsubsection.4.6.2.2}{}}
\@writefile{toc}{\contentsline {subsubsection}{\numberline {4.6.2.3}elem\_t}{44}{subsubsection.4.6.2.3}\protected@file@percent }
\newlabel{Snmp2InfluxDB_8c_af63ad2e0b924583a872a1c7407be0935}{{4.6.2.3}{44}{\texorpdfstring {elem\_t}{elem\_t}}{subsubsection.4.6.2.3}{}}
\@writefile{toc}{\contentsline {subsubsection}{\numberline {4.6.2.4}mesure\_t}{44}{subsubsection.4.6.2.4}\protected@file@percent }
\@writefile{toc}{\contentsline {subsection}{\numberline {4.6.3}Documentation des fonctions}{44}{subsection.4.6.3}\protected@file@percent }
\newlabel{Snmp2InfluxDB_8c_a04e56d8648318c703af4d328b69ae102}{{4.6.3}{44}{Documentation des fonctions}{subsection.4.6.3}{}}
\@writefile{toc}{\contentsline {subsubsection}{\numberline {4.6.3.1}dispatche\_configuration()}{44}{subsubsection.4.6.3.1}\protected@file@percent }
\gdef \LT@xxvii {\LT@entry 
    {3}{36.81165pt}\LT@entry 
    {3}{174.5224pt}}
\gdef \LT@xxviii {\LT@entry 
    {3}{30.3047pt}\LT@entry 
    {3}{116.23985pt}}
\gdef \LT@xxix {\LT@entry 
    {3}{36.93753pt}\LT@entry 
    {3}{106.70895pt}}
\newlabel{Snmp2InfluxDB_8c_a8d45749a451fd8a4fceb3d723a0c95a1}{{4.6.3.1}{45}{\texorpdfstring {dispatche\_configuration()}{dispatche\_configuration()}}{table.4.26}{}}
\@writefile{toc}{\contentsline {subsubsection}{\numberline {4.6.3.2}display\_response()}{45}{subsubsection.4.6.3.2}\protected@file@percent }
\newlabel{Snmp2InfluxDB_8c_a4234df0b455a9ab1513d1bbc6a571a69}{{4.6.3.2}{45}{\texorpdfstring {display\_response()}{display\_response()}}{table.4.27}{}}
\@writefile{toc}{\contentsline {subsubsection}{\numberline {4.6.3.3}display\_series()}{45}{subsubsection.4.6.3.3}\protected@file@percent }
\newlabel{Snmp2InfluxDB_8c_abb5f36acc4d5ee5a1d67a21c7a94dccd}{{4.6.3.3}{45}{\texorpdfstring {display\_series()}{display\_series()}}{table.4.28}{}}
\@writefile{toc}{\contentsline {subsubsection}{\numberline {4.6.3.4}do\_term()}{45}{subsubsection.4.6.3.4}\protected@file@percent }
\gdef \LT@xxx {\LT@entry 
    {3}{36.30759pt}\LT@entry 
    {3}{12.4pt}}
\gdef \LT@xxxi {\LT@entry 
    {3}{22.8078pt}\LT@entry 
    {3}{234.8937pt}}
\gdef \LT@xxxii {\LT@entry 
    {3}{36.81152pt}\LT@entry 
    {3}{122.3326pt}}
\newlabel{Snmp2InfluxDB_8c_a0ddf1224851353fc92bfbff6f499fa97}{{4.6.3.4}{46}{\texorpdfstring {do\_term()}{do\_term()}}{table.4.29}{}}
\@writefile{toc}{\contentsline {subsubsection}{\numberline {4.6.3.5}main()}{46}{subsubsection.4.6.3.5}\protected@file@percent }
\newlabel{Snmp2InfluxDB_8c_a6802dd61f2f7a4e29bc7f6b907ce457b}{{4.6.3.5}{46}{\texorpdfstring {main()}{main()}}{subsubsection.4.6.3.5}{}}
\@writefile{toc}{\contentsline {subsubsection}{\numberline {4.6.3.6}new\_mesure()}{46}{subsubsection.4.6.3.6}\protected@file@percent }
\newlabel{Snmp2InfluxDB_8c_ac062102caf01d3b63de2e8b956379141}{{4.6.3.6}{46}{\texorpdfstring {new\_mesure()}{new\_mesure()}}{table.4.30}{}}
\@writefile{toc}{\contentsline {subsubsection}{\numberline {4.6.3.7}print\_result()}{46}{subsubsection.4.6.3.7}\protected@file@percent }
\gdef \LT@xxxiii {\LT@entry 
    {3}{41.58153pt}\LT@entry 
    {3}{174.49573pt}}
\gdef \LT@xxxiv {\LT@entry 
    {3}{41.58153pt}\LT@entry 
    {3}{102.47914pt}}
\newlabel{Snmp2InfluxDB_8c_abf0b6767669da1e042fe0564cb6863e0}{{4.6.3.7}{47}{\texorpdfstring {print\_result()}{print\_result()}}{table.4.31}{}}
\@writefile{toc}{\contentsline {subsubsection}{\numberline {4.6.3.8}store\_fields()}{47}{subsubsection.4.6.3.8}\protected@file@percent }
\newlabel{Snmp2InfluxDB_8c_afcb6497530fe91c9d56c0371901c0831}{{4.6.3.8}{47}{\texorpdfstring {store\_fields()}{store\_fields()}}{table.4.32}{}}
\@writefile{toc}{\contentsline {subsubsection}{\numberline {4.6.3.9}store\_index()}{47}{subsubsection.4.6.3.9}\protected@file@percent }
\newlabel{Snmp2InfluxDB_8c_aa3c9aa2dac37c45f1bb480913a3a1a2a}{{4.6.3.9}{47}{\texorpdfstring {store\_index()}{store\_index()}}{table.4.33}{}}
\@writefile{toc}{\contentsline {subsubsection}{\numberline {4.6.3.10}store\_tables()}{47}{subsubsection.4.6.3.10}\protected@file@percent }
\gdef \LT@xxxv {\LT@entry 
    {3}{41.58153pt}\LT@entry 
    {3}{174.49573pt}}
\@writefile{toc}{\contentsline {subsection}{\numberline {4.6.4}Documentation des variables}{48}{subsection.4.6.4}\protected@file@percent }
\newlabel{Snmp2InfluxDB_8c_a83ab785742f8a2290a2443f9885e15c4}{{4.6.4}{48}{Documentation des variables}{subsection.4.6.4}{}}
\@writefile{toc}{\contentsline {subsubsection}{\numberline {4.6.4.1}Config}{48}{subsubsection.4.6.4.1}\protected@file@percent }
\newlabel{Snmp2InfluxDB_8c_a494f2ff86463121e27db5f2bec2e3f75}{{4.6.4.1}{48}{\texorpdfstring {Config}{Config}}{subsubsection.4.6.4.1}{}}
\@writefile{toc}{\contentsline {subsubsection}{\numberline {4.6.4.2}TerminaisonAsked}{48}{subsubsection.4.6.4.2}\protected@file@percent }
\newlabel{Snmp2InfluxDB_8c_a95f627d7054b1abbffa2c6ea19bf05db}{{4.6.4.2}{48}{\texorpdfstring {TerminaisonAsked}{TerminaisonAsked}}{subsubsection.4.6.4.2}{}}
\@writefile{toc}{\contentsline {subsubsection}{\numberline {4.6.4.3}Verbose}{48}{subsubsection.4.6.4.3}\protected@file@percent }
\@writefile{toc}{\contentsline {chapter}{Index}{49}{section*.37}\protected@file@percent }
\gdef \@abspage@last{58}
